<?xml version="1.0" standalone="no"?>
<!DOCTYPE svg PUBLIC "-//W3C//DTD SVG 1.1//EN" "http://www.w3.org/Graphics/SVG/1.1/DTD/svg11.dtd" >
<svg xmlns="http://www.w3.org/2000/svg">
<metadata>Generated by IcoMoon</metadata>
<defs>
<font id="icomoon" horiz-adv-x="1024">
<font-face units-per-em="1024" ascent="960" descent="-64" />
<missing-glyph horiz-adv-x="1024" />
<glyph unicode="&#x20;" horiz-adv-x="512" d="" />
<glyph unicode="&#xe900;" glyph-name="file" d="M352 480h32v32h-32v-32zM352 384h32v32h-32v-32zM352 576h32v32h-32v-32zM352 288h32v32h-32v-32zM352 192h32v32h-32v-32zM416 384h256v32h-256v-32zM416 576h256v32h-256v-32zM670.016 832h-446.016v-768h576v640l-129.984 128zM736 129.984h-448v638.016h320v-94.016h128v-544zM416 288h256v32h-256v-32zM416 480h256v32h-256v-32zM416 192h256v32h-256v-32z" />
<glyph unicode="&#xe901;" glyph-name="lk" horiz-adv-x="951" d="M475.429-64c-343.771 0-475.429 7.314-475.429 109.714 0 138.971 131.657 329.143 475.429 329.143s475.429-190.171 475.429-329.143c0-102.4-131.657-109.714-475.429-109.714zM475.429 448c-138.971 0-256 117.029-256 256s117.029 256 256 256 256-117.029 256-256c0-138.971-117.029-256-256-256z" />
<glyph unicode="&#xe902;" glyph-name="search" d="M313.775 141.069l-194.183-194.183-77.608 77.608 194.183 194.129c-133.875 172.14-122.072 420.864 36.109 579.045 79.534 80.22 189.776 129.884 311.617 129.884 242.319 0 438.757-196.438 438.757-438.757 0-121.842-49.664-232.084-129.853-311.587l-0.031-0.031c-158.181-158.181-406.905-169.984-578.991-36.109zM815.212 254.733c59.458 59.593 96.225 141.848 96.225 232.691s-36.767 173.098-96.231 232.697l0.006-0.006c-59.593 59.458-141.848 96.225-232.691 96.225s-173.098-36.767-232.697-96.231l0.006 0.006c-59.458-59.593-96.225-141.848-96.225-232.691s36.767-173.098 96.231-232.697l-0.006 0.006c59.593-59.458 141.848-96.225 232.691-96.225s173.098 36.767 232.697 96.231l-0.006-0.006z" />
<glyph unicode="&#xe903;" glyph-name="calendar" d="M864-32h-704c-35.328 0-64 28.672-64 64v704c0 35.36 28.672 64 64 64h64v-32c0-53.024 42.976-96 96-96 52.992 0 96 42.976 96 96v32h192v-32c0-53.024 43.008-96 96-96s96 42.976 96 96v32h64c35.328 0 64-28.64 64-64v-704c0-35.328-28.672-64-64-64zM864 576h-704v-544h704v544zM320 416h-96v96h96v-96zM320 256h-96v96h96v-96zM320 96h-96v96h96v-96zM480 416h-96v96h96v-96zM480 256h-96v96h96v-96zM480 96h-96v96h96v-96zM640 416h-96v96h96v-96zM640 256h-96v96h96v-96zM640 96h-96v96h96v-96zM800 416h-96v96h96v-96zM800 256h-96v96h96v-96zM800 96h-96v96h96v-96zM703.008 704c-34.816 0-63.008 28.224-63.008 63.008v65.984c0 34.816 28.192 63.008 63.008 63.008s63.008-28.192 63.008-63.008v-65.984c0-34.784-28.192-63.008-63.008-63.008zM319.008 704c-34.816 0-63.008 28.224-63.008 63.008v65.984c0 34.816 28.192 63.008 63.008 63.008s63.008-28.192 63.008-63.008v-65.984c0-34.784-28.224-63.008-63.008-63.008z" />
<glyph unicode="&#xe90f;" glyph-name="camera" d="M304 352c0-114.876 93.124-208 208-208s208 93.124 208 208-93.124 208-208 208-208-93.124-208-208zM960 704h-224c-16 64-32 128-96 128h-256c-64 0-80-64-96-128h-224c-35.2 0-64-28.8-64-64v-576c0-35.2 28.8-64 64-64h896c35.2 0 64 28.8 64 64v576c0 35.2-28.8 64-64 64zM512 68c-156.85 0-284 127.148-284 284 0 156.85 127.15 284 284 284 156.852 0 284-127.15 284-284 0-156.852-127.146-284-284-284zM960 512h-128v64h128v-64z" />
</font></defs></svg>